{
	"html": "<!DOCTYPE html> <html lang='en'> <head> <meta charset='utf-8'> <meta name='viewport' content='width=device-width, initial-scale=1'> <link rel='preconnect' href='https://fonts.googleapis.com'> <link rel='preconnect' href='https://fonts.gstatic.com' crossorigin> <link href='https://fonts.googleapis.com/css2?family=Poppins:ital,wght@0,400;0,500;0,600;0,700;1,400;1,500;1,600;1,700&display=swap' rel='stylesheet'> <style> p { color: #757575; } strong { color: black; font-weight: 600; } </style> </head> <body style='font-family: Poppins; font-size: 14px !important;'> <strong>Balancing risk and reward ⚖️</strong> <p>First thing to consider, <strong>investing is all about balancing risk and reward</strong>. If an investment is paying a good return, it's usually coming with higher risk than one paying a modest return. That's just life. Sorry. 🤷🏻‍♀️</p> <p>The return is literally compensation for you taking on that risk. If anyone tells you they're getting a great return from investing in a sure thing, be very suspicious.</p> <p>You need to figure out what level of risk you find acceptable. In general, if you see the investment as a long-term endeavour, you should be able to tolerate higher risk. You'll have more time to recover from any short-term losses.</p> <br/> <strong>Think of liquidity 💦</strong> <p>Next, the concept of liquidity. Plenty of investments require you to <strong>lock away money where it's hard to get at</strong>, or where you might struggle to sell quickly. Professional investors would say these are illiquid. In practice, this means it's always a good idea to keep some cash on hand for emergencies. 💷</p> <p>Many financial advisors suggest the emergency fund should be around three months' salary.</p> <br/> <strong>The power of compounding 📈</strong> <p>Third, be aware of <strong>the effects of compound interest</strong>. What's compound interest you say?</p> <p>Let's take an example. If you invested £100 in an asset paying a 10% return. After a year you'd have £110. Then after the second year, you'd be sitting on £121, because you'd get interest on the original £100 and also on the £10 interest from the first year. And if you left that £100 alone for 10 years, you'd have amassed an impressive £259.</p> <p><strong>Your pot will grow exponentially over time</strong>, as each year, the returns build on each other. 🚀</p> <br/> <p> </span> </a> </span></p> <br/> <p>I'm sure you've heard it alllll before… '<strong>Start investing as young as possible!</strong>' That's usually to capture the power of compounding. As Albert Einstein would say, '<em><strong>Compound interest is the eighth wonder of the world. He who understands it, earns it; he who doesn't, pays it!</strong></em>' 💪🏼</p> <p>In our next session, we will show you the best ways to approach the investing game.</p> </body> </html> "
}
