<svg width="216" height="35" viewBox="0 0 216 35" fill="none" xmlns="http://www.w3.org/2000/svg">
<path d="M11.8429 34.9996C5.29897 34.9996 0 29.7006 0 23.1567V0.109375C6.54391 0.109375 11.8429 5.40835 11.8429 11.9523V34.9996Z" fill="white"/>
<path d="M30.7402 34.9996V11.9523C30.7402 5.40835 36.0392 0.109375 42.5831 0.109375V23.1567C42.5831 29.7006 37.2841 34.9996 30.7402 34.9996Z" fill="white"/>
<path d="M27.2286 34.9959C20.6847 34.9959 15.3857 29.697 15.3857 23.153V12.9062C21.9296 12.9062 27.2286 18.2052 27.2286 24.7491V34.9959Z" fill="white"/>
<g clip-path="url(#clip0_1931_51364)">
<path d="M67.2512 11.5865C67.4427 12.2888 67.6981 13.0868 67.9216 13.9806C68.1769 14.8744 68.4323 15.8001 68.7196 16.7259C69.0069 17.6835 69.2942 18.6092 69.5815 19.5669C69.8688 20.5245 70.1561 21.3864 70.4434 22.2164C70.6668 21.3226 70.8903 20.3968 71.1456 19.3434C71.3691 18.3219 71.5925 17.2366 71.816 16.1513C72.0394 15.034 72.231 13.9487 72.4225 12.8634C72.614 11.778 72.8055 10.7246 72.9971 9.70312H77.1788C76.5723 12.7037 75.87 15.7363 75.072 18.8327C74.2739 21.9291 73.444 24.8339 72.5183 27.6111H68.8154C68.2088 25.9512 67.6343 24.2274 67.0597 22.4079C66.4851 20.5884 65.9424 18.7688 65.3678 16.9493C64.8252 18.7688 64.2506 20.5884 63.7079 22.4079C63.1653 24.2274 62.5907 25.9512 61.9842 27.6111H58.3132C57.3875 24.8339 56.5575 21.8971 55.7595 18.8327C54.9614 15.7363 54.2911 12.7037 53.6846 9.70312H58.0578C58.2174 10.7246 58.409 11.778 58.6324 12.8634C58.8559 13.9487 59.0474 15.0659 59.2708 16.1513C59.4943 17.2685 59.7177 18.3219 59.9731 19.3434C60.1966 20.3649 60.4519 21.3226 60.6754 22.2164C60.9946 21.3864 61.2819 20.4607 61.5692 19.535C61.8565 18.5773 62.1438 17.6516 62.4311 16.6939C62.7184 15.7363 62.9737 14.8425 63.1972 13.9487C63.4206 13.0549 63.6441 12.2888 63.8356 11.5865H67.2512Z" fill="white"/>
<path d="M77.9453 20.9031C77.9453 19.6901 78.1368 18.6367 78.488 17.7429C78.871 16.8491 79.3499 16.083 79.9564 15.4764C80.5629 14.8699 81.2652 14.423 82.0313 14.1038C82.8293 13.7846 83.6273 13.625 84.4573 13.625C86.3726 13.625 87.9048 14.2315 89.0221 15.3807C90.1393 16.5618 90.7139 18.2855 90.7139 20.5839C90.7139 20.8073 90.7139 21.0627 90.682 21.3181C90.6501 21.5734 90.6501 21.8288 90.6181 22.0203H81.8717C81.9674 22.8184 82.3186 23.4568 82.9889 23.9037C83.6593 24.3825 84.5211 24.606 85.6384 24.606C86.3407 24.606 87.0429 24.5421 87.7133 24.4145C88.3836 24.2868 88.9582 24.1272 89.3732 23.9356L89.8839 27.0639C89.6924 27.1597 89.4051 27.2555 89.054 27.3832C88.7029 27.4789 88.3198 27.5747 87.9048 27.6385C87.4898 27.7024 87.0429 27.7662 86.5322 27.8301C86.0534 27.8939 85.5745 27.8939 85.0957 27.8939C83.8827 27.8939 82.7974 27.7024 81.9036 27.3512C81.0098 27.0001 80.2437 26.4894 79.6691 25.8509C79.0626 25.2125 78.6476 24.4783 78.3603 23.6164C78.1049 22.8184 77.9453 21.8927 77.9453 20.9031ZM86.9791 19.4028C86.9472 19.0836 86.9153 18.7644 86.8195 18.4451C86.7237 18.1259 86.5641 17.8706 86.3726 17.6152C86.1811 17.3598 85.9257 17.1683 85.6384 17.0087C85.3511 16.8491 84.968 16.7852 84.5211 16.7852C84.1062 16.7852 83.7231 16.8491 83.4039 17.0087C83.0847 17.1683 82.8293 17.3598 82.6378 17.5833C82.4462 17.8386 82.2866 18.094 82.159 18.4132C82.0313 18.7324 81.9674 19.0517 81.9036 19.3709H86.9791V19.4028Z" fill="white"/>
<path d="M98.5666 13.625C99.7157 13.625 100.641 13.7527 101.408 14.0081C102.174 14.2634 102.78 14.6465 103.227 15.1253C103.674 15.6041 103.993 16.1787 104.185 16.881C104.376 17.5833 104.472 18.3494 104.472 19.1793V27.1916C103.929 27.3193 103.163 27.447 102.174 27.6066C101.184 27.7662 100.003 27.862 98.5985 27.862C97.7047 27.862 96.9066 27.7981 96.2044 27.6385C95.5021 27.4789 94.8637 27.2236 94.3529 26.8724C93.8422 26.5213 93.4272 26.0744 93.1718 25.4998C92.8845 24.9252 92.7568 24.2229 92.7568 23.393C92.7568 22.5949 92.9164 21.9246 93.2357 21.3819C93.5549 20.8393 93.9699 20.3924 94.5125 20.0731C95.0552 19.7539 95.6617 19.4986 96.332 19.3709C97.0343 19.2113 97.7366 19.1474 98.4708 19.1474C98.9815 19.1474 99.4284 19.1793 99.8115 19.2113C100.195 19.2432 100.514 19.307 100.769 19.3709V18.9878C100.769 18.3175 100.578 17.8067 100.163 17.4237C99.7796 17.0406 99.0773 16.8171 98.0877 16.8171C97.4174 16.8171 96.7789 16.8491 96.1405 16.9448C95.5021 17.0406 94.9594 17.1683 94.4806 17.3598L94.0018 14.2634C94.2252 14.1996 94.5125 14.1357 94.8317 14.04C95.1829 13.9761 95.534 13.8804 95.9171 13.8484C96.3001 13.7846 96.747 13.7527 97.162 13.6888C97.6728 13.6569 98.1197 13.625 98.5666 13.625ZM98.8858 24.8933C99.2688 24.8933 99.62 24.8933 99.9711 24.8614C100.322 24.8294 100.578 24.8294 100.801 24.7975V21.8607C100.641 21.8288 100.418 21.7969 100.099 21.765C99.7796 21.7331 99.4923 21.7011 99.2369 21.7011C98.8858 21.7011 98.5346 21.7331 98.2154 21.765C97.8962 21.7969 97.6089 21.8927 97.3855 22.0203C97.1301 22.148 96.9705 22.3076 96.8109 22.4992C96.6832 22.6907 96.6193 22.978 96.6193 23.2653C96.6193 23.8718 96.8109 24.2868 97.2258 24.5102C97.6089 24.7656 98.1835 24.8933 98.8858 24.8933Z" fill="white"/>
<path d="M113.41 27.8333C112.293 27.8014 111.367 27.7056 110.697 27.4822C109.994 27.2587 109.452 26.9395 109.037 26.5245C108.622 26.1096 108.366 25.6307 108.207 25.0562C108.047 24.4816 107.983 23.8431 107.983 23.1089V8.13776L111.846 7.53125V22.3428C111.846 22.694 111.878 23.0132 111.91 23.2685C111.974 23.5558 112.069 23.7793 112.197 23.9708C112.357 24.1623 112.548 24.3219 112.835 24.4496C113.123 24.5773 113.474 24.6412 113.953 24.6731L113.41 27.8333Z" fill="white"/>
<path d="M116.027 10.5987L119.89 9.99219V14.0143H124.518V17.2064H119.89V21.9947C119.89 22.7927 120.017 23.4631 120.305 23.9419C120.592 24.4207 121.166 24.6761 122.028 24.6761C122.443 24.6761 122.858 24.6442 123.305 24.5484C123.752 24.4846 124.135 24.3569 124.518 24.2292L125.061 27.2298C124.582 27.4213 124.071 27.5809 123.497 27.7086C122.922 27.8363 122.22 27.9002 121.39 27.9002C120.336 27.9002 119.475 27.7725 118.772 27.4852C118.07 27.1979 117.527 26.8148 117.112 26.3041C116.697 25.7933 116.41 25.1868 116.251 24.4526C116.091 23.7184 115.995 22.9204 115.995 22.0585V10.5987H116.027Z" fill="white"/>
<path d="M127.615 27.578V8.13776L131.478 7.53125V14.0432C131.733 13.9475 132.052 13.8836 132.467 13.7879C132.882 13.724 133.265 13.6602 133.648 13.6602C134.766 13.6602 135.659 13.8198 136.394 14.1071C137.128 14.3944 137.702 14.8413 138.149 15.3839C138.596 15.9266 138.884 16.597 139.075 17.3631C139.267 18.1292 139.362 18.9591 139.362 19.8849V27.546H135.5V20.3318C135.5 19.0868 135.34 18.2249 135.021 17.6823C134.702 17.1715 134.127 16.9162 133.265 16.9162C132.914 16.9162 132.595 16.9481 132.308 17.0119C132.02 17.0758 131.733 17.1396 131.478 17.2035V27.546H127.615V27.578Z" fill="white"/>
<path d="M154.525 13.9766C153.759 16.5941 152.929 19.0521 152.099 21.3504C151.237 23.6488 150.343 25.8514 149.322 28.022C148.97 28.7881 148.587 29.4585 148.236 30.0012C147.885 30.5438 147.47 30.9907 147.055 31.3419C146.608 31.693 146.129 31.9484 145.587 32.108C145.044 32.2676 144.406 32.3634 143.671 32.3634C143.065 32.3634 142.522 32.2995 142.012 32.2038C141.501 32.0761 141.086 31.9803 140.767 31.8207L141.437 28.7562C141.82 28.8839 142.171 28.9797 142.49 29.0435C142.81 29.1074 143.129 29.1074 143.48 29.1074C144.182 29.1074 144.693 28.9158 145.076 28.5647C145.459 28.1816 145.746 27.6709 146.034 27.0325C145.14 25.3087 144.278 23.3615 143.384 21.2227C142.49 19.084 141.692 16.658 140.894 14.0085H144.98C145.14 14.6788 145.363 15.413 145.587 16.1792C145.81 16.9772 146.066 17.7433 146.321 18.5413C146.576 19.3394 146.832 20.1374 147.119 20.8716C147.374 21.6377 147.63 22.3081 147.885 22.9465C148.109 22.34 148.332 21.6377 148.587 20.8716C148.843 20.1055 149.066 19.3394 149.29 18.5413C149.513 17.7433 149.737 16.9453 149.96 16.1792C150.183 15.3811 150.375 14.6788 150.535 14.0085H154.525V13.9766Z" fill="white"/>
<path d="M156.567 27.578V8.13776L160.43 7.53125V14.0432C160.685 13.9475 161.004 13.8836 161.419 13.7879C161.834 13.724 162.217 13.6602 162.601 13.6602C163.718 13.6602 164.612 13.8198 165.346 14.1071C166.08 14.3944 166.655 14.8413 167.101 15.3839C167.548 15.9266 167.836 16.597 168.027 17.3631C168.219 18.1292 168.314 18.9591 168.314 19.8849V27.546H164.452V20.3318C164.452 19.0868 164.292 18.2249 163.973 17.6823C163.654 17.1715 163.079 16.9162 162.217 16.9162C161.866 16.9162 161.547 16.9481 161.26 17.0119C160.973 17.0758 160.685 17.1396 160.43 17.2035V27.546H156.567V27.578Z" fill="white"/>
<path d="M184.498 20.7819C184.498 21.8353 184.339 22.8249 184.02 23.7187C183.7 24.6125 183.254 25.3786 182.679 25.9851C182.104 26.6235 181.402 27.1023 180.572 27.4535C179.742 27.8046 178.848 27.9642 177.827 27.9642C176.837 27.9642 175.912 27.8046 175.114 27.4535C174.284 27.1023 173.581 26.6235 173.007 25.9851C172.432 25.3467 171.953 24.6125 171.634 23.7187C171.315 22.8249 171.155 21.8672 171.155 20.7819C171.155 19.7285 171.315 18.7389 171.666 17.877C172.017 16.9832 172.464 16.249 173.071 15.6425C173.677 15.036 174.379 14.5253 175.177 14.2061C176.007 13.8549 176.901 13.6953 177.859 13.6953C178.848 13.6953 179.742 13.8549 180.572 14.2061C181.402 14.5572 182.104 15.036 182.679 15.6425C183.254 16.249 183.732 17.0152 184.052 17.877C184.339 18.7389 184.498 19.6966 184.498 20.7819ZM180.572 20.7819C180.572 19.6008 180.349 18.6431 179.87 17.9728C179.391 17.3024 178.721 16.9513 177.827 16.9513C176.933 16.9513 176.263 17.3024 175.784 17.9728C175.305 18.6431 175.05 19.6008 175.05 20.7819C175.05 21.963 175.305 22.9206 175.784 23.6229C176.263 24.3252 176.933 24.6763 177.827 24.6763C178.721 24.6763 179.391 24.3252 179.87 23.6229C180.349 22.8887 180.572 21.963 180.572 20.7819Z" fill="white"/>
<path d="M200.205 20.7819C200.205 21.8353 200.045 22.8249 199.726 23.7187C199.407 24.6125 198.96 25.3786 198.385 25.9851C197.81 26.6235 197.108 27.1023 196.278 27.4535C195.448 27.8046 194.554 27.9642 193.533 27.9642C192.543 27.9642 191.618 27.8046 190.82 27.4535C189.99 27.1023 189.287 26.6235 188.713 25.9851C188.138 25.3467 187.659 24.6125 187.34 23.7187C187.021 22.8249 186.861 21.8672 186.861 20.7819C186.861 19.7285 187.021 18.7389 187.372 17.877C187.723 16.9832 188.17 16.249 188.777 15.6425C189.383 15.036 190.085 14.5253 190.883 14.2061C191.713 13.8549 192.607 13.6953 193.565 13.6953C194.554 13.6953 195.448 13.8549 196.278 14.2061C197.108 14.5572 197.81 15.036 198.385 15.6425C198.96 16.249 199.438 17.0152 199.758 17.877C200.045 18.7389 200.205 19.6966 200.205 20.7819ZM196.278 20.7819C196.278 19.6008 196.055 18.6431 195.576 17.9728C195.097 17.3024 194.427 16.9513 193.533 16.9513C192.639 16.9513 191.969 17.3024 191.49 17.9728C191.011 18.6431 190.756 19.6008 190.756 20.7819C190.756 21.963 191.011 22.9206 191.49 23.6229C191.969 24.3252 192.639 24.6763 193.533 24.6763C194.427 24.6763 195.097 24.3252 195.576 23.6229C196.023 22.8887 196.278 21.963 196.278 20.7819Z" fill="white"/>
<path d="M215.175 27.163C214.824 27.2587 214.441 27.3545 213.994 27.4503C213.547 27.546 213.068 27.6418 212.589 27.7056C212.111 27.7695 211.6 27.8333 211.089 27.8652C210.578 27.8972 210.1 27.9291 209.621 27.9291C208.503 27.9291 207.514 27.7695 206.62 27.4503C205.726 27.1311 204.992 26.6522 204.386 26.0457C203.779 25.4392 203.332 24.705 203.013 23.8112C202.694 22.9493 202.534 21.9598 202.534 20.8744C202.534 19.7572 202.662 18.7676 202.949 17.8738C203.236 16.98 203.62 16.2458 204.13 15.6074C204.641 15.0009 205.279 14.5221 206.046 14.1709C206.78 13.8517 207.642 13.6921 208.631 13.6921C209.174 13.6921 209.653 13.7559 210.068 13.8517C210.483 13.9475 210.93 14.1071 211.344 14.2986V8.13776L215.207 7.53125V27.163H215.175ZM206.461 20.6829C206.461 21.864 206.716 22.8216 207.259 23.5558C207.801 24.29 208.599 24.6412 209.621 24.6412C209.972 24.6412 210.291 24.6412 210.578 24.6092C210.866 24.5773 211.121 24.5454 211.313 24.5135V17.5227C211.057 17.3631 210.77 17.2354 210.355 17.1396C209.972 17.0439 209.589 16.98 209.174 16.98C207.386 16.9481 206.461 18.193 206.461 20.6829Z" fill="white"/>
</g>
<defs>
<clipPath id="clip0_1931_51364">
<rect width="161.522" height="34.8902" fill="white" transform="translate(53.6846 0.109375)"/>
</clipPath>
</defs>
</svg>
